{
    "page": 1,
    "total_results": 94,
    "total_pages": 5,
    "results": [
        {
            "vote_count": 1871,
            "id": 268,
            "video": false,
            "vote_average": 7,
            "title": "Batman",
            "popularity": 4.5119,
            "poster_path": "/kBf3g9crrADGMc2AMAMlLBgSm2h.jpg",
            "original_language": "en",
            "original_title": "Batman",
            "genre_ids": [
                14,
                28
            ],
            "backdrop_path": "/2blmxp2pr4BhwQr74AdCfwgfMOb.jpg",
            "adult": false,
            "overview": "The Dark Knight of Gotham City begins his war on crime with his first major enemy being the clownishly homicidal Joker, who has seized control of Gotham's underworld.",
            "release_date": "1989-06-23"
        },
        {
            "vote_count": 6646,
            "id": 272,
            "video": false,
            "vote_average": 7.5,
            "title": "Batman Begins",
            "popularity": 8.696507,
            "poster_path": "/dr6x4GyyegBWtinPBzipY02J2lV.jpg",
            "original_language": "en",
            "original_title": "Batman Begins",
            "genre_ids": [
                28,
                80,
                18
            ],
            "backdrop_path": "/65JWXDCAfwHhJKnDwRnEgVB411X.jpg",
            "adult": false,
            "overview": "Driven by tragedy, billionaire Bruce Wayne dedicates his life to uncovering and defeating the corruption that plagues his home, Gotham City.  Unable to work within the system, he instead creates a new identity, a symbol of fear for the criminal underworld - The Batman.",
            "release_date": "2005-06-10"
        },
        {
            "vote_count": 180,
            "id": 2661,
            "video": false,
            "vote_average": 6.1,
            "title": "Batman",
            "popularity": 2.102571,
            "poster_path": "/udDVJXtAFsQ8DimrXkVFqy4DGEQ.jpg",
            "original_language": "en",
            "original_title": "Batman",
            "genre_ids": [
                10751,
                12,
                35,
                878,
                80
            ],
            "backdrop_path": "/5gcdof2PKH1emllBdN1VXU706IP.jpg",
            "adult": false,
            "overview": "The Dynamic Duo faces four super-villains who plan to hold the world for ransom with the help of a secret invention that instantly dehydrates people.",
            "release_date": "1966-07-30"
        },
        {
            "vote_count": 1103,
            "id": 324849,
            "video": false,
            "vote_average": 7.2,
            "title": "The Lego Batman Movie",
            "popularity": 10.693047,
            "poster_path": "/snGwr2gag4Fcgx2OGmH9otl6ofW.jpg",
            "original_language": "en",
            "original_title": "The Lego Batman Movie",
            "genre_ids": [
                14,
                28,
                16,
                35,
                10751
            ],
            "backdrop_path": "/gbO4tWvMC0oLbNvHP9Zth3eUeAA.jpg",
            "adult": false,
            "overview": "In the irreverent spirit of fun that made “The Lego Movie” a worldwide phenomenon, the self-described leading man of that ensemble—Lego Batman—stars in his own big-screen adventure. But there are big changes brewing in Gotham, and if he wants to save the city from The Joker’s hostile takeover, Batman may have to drop the lone vigilante thing, try to work with others and maybe, just maybe, learn to lighten up.",
            "release_date": "2017-02-08"
        },
        {
            "vote_count": 1478,
            "id": 364,
            "video": false,
            "vote_average": 6.6,
            "title": "Batman Returns",
            "popularity": 5.040212,
            "poster_path": "/jX5THE1yW3zTdeD9dupcIyQvKiG.jpg",
            "original_language": "en",
            "original_title": "Batman Returns",
            "genre_ids": [
                28,
                14
            ],
            "backdrop_path": "/wNIE5dpkiHU2csDRptMutFjAGiV.jpg",
            "adult": false,
            "overview": "Having defeated the Joker, Batman now faces the Penguin - a warped and deformed individual who is intent on being accepted into Gotham society. Crooked businessman Max Schreck is coerced into helping him become Mayor of Gotham and they both attempt to expose Batman in a different light. Selina Kyle, Max's secretary, is thrown from the top of a building and is transformed into Catwoman - a mysterious figure who has the same personality disorder as Batman. Batman must attempt to clear his name, all the time deciding just what must be done with the Catwoman.",
            "release_date": "1992-06-19"
        },
        {
            "vote_count": 1269,
            "id": 415,
            "video": false,
            "vote_average": 4.2,
            "title": "Batman & Robin",
            "popularity": 3.047581,
            "poster_path": "/79AYCcxw3kSKbhGpx1LiqaCAbwo.jpg",
            "original_language": "en",
            "original_title": "Batman & Robin",
            "genre_ids": [
                28,
                80,
                14
            ],
            "backdrop_path": "/h4tsxkwe0lRHBK1WHliNASK63IK.jpg",
            "adult": false,
            "overview": "Along with crime-fighting partner Robin and new recruit Batgirl, Batman battles the dual threat of frosty genius Mr. Freeze and homicidal horticulturalist Poison Ivy. Freeze plans to put Gotham City on ice, while Ivy tries to drive a wedge between the dynamic duo.",
            "release_date": "1997-06-20"
        },
        {
            "vote_count": 1348,
            "id": 414,
            "video": false,
            "vote_average": 5.2,
            "title": "Batman Forever",
            "popularity": 2.775029,
            "poster_path": "/eTMrHEhlFPHNxpqGwpGGTdAa0xV.jpg",
            "original_language": "en",
            "original_title": "Batman Forever",
            "genre_ids": [
                28,
                80,
                14
            ],
            "backdrop_path": "/gVTTtYgKIBurNvkGiGC6735b8y.jpg",
            "adult": false,
            "overview": "The Dark Knight of Gotham City confronts a dastardly duo: Two-Face and the Riddler. Formerly District Attorney Harvey Dent, Two-Face believes Batman caused the courtroom accident which left him disfigured on one side. And Edward Nygma, computer-genius and former employee of millionaire Bruce Wayne, is out to get the philanthropist; as The Riddler. Former circus acrobat Dick Grayson, his family killed by Two-Face, becomes Wayne's ward and Batman's new partner Robin.",
            "release_date": "1995-05-31"
        },
        {
            "vote_count": 6249,
            "id": 209112,
            "video": false,
            "vote_average": 5.7,
            "title": "Batman v Superman: Dawn of Justice",
            "popularity": 10.690228,
            "poster_path": "/cGOPbv9wA5gEejkUN892JrveARt.jpg",
            "original_language": "en",
            "original_title": "Batman v Superman: Dawn of Justice",
            "genre_ids": [
                28,
                12,
                14
            ],
            "backdrop_path": "/vsjBeMPZtyB7yNsYY56XYxifaQZ.jpg",
            "adult": false,
            "overview": "Fearing the actions of a god-like Super Hero left unchecked, Gotham City’s own formidable, forceful vigilante takes on Metropolis’s most revered, modern-day savior, while the world wrestles with what sort of hero it really needs. And with Batman and Superman at war with one another, a new threat quickly arises, putting mankind in greater danger than it’s ever known before.",
            "release_date": "2016-03-23"
        },
        {
            "vote_count": 52,
            "id": 20077,
            "video": false,
            "vote_average": 6.5,
            "title": "The Batman vs Dracula",
            "popularity": 2.834167,
            "poster_path": "/vPr6t2stb4NJ54151ms5xu8bykP.jpg",
            "original_language": "en",
            "original_title": "The Batman vs Dracula",
            "genre_ids": [
                14,
                16,
                27,
                28,
                53,
                878
            ],
            "backdrop_path": "/4aAlheGhU4rkDE4gSjekBnRXdGL.jpg",
            "adult": false,
            "overview": "Gotham City is terrorized not only by recent escapees Joker and Penguin, but by the original creature of the night, Dracula! Can Batman stop the ruthless vampire before he turns everyone in the city, including The Caped Crusader, Joker and Penguin, into his mindless minions?",
            "release_date": "2005-10-18"
        },
        {
            "vote_count": 148,
            "id": 13851,
            "video": false,
            "vote_average": 6.7,
            "title": "Batman: Gotham Knight",
            "popularity": 2.752255,
            "poster_path": "/eIAhXROHG8t3QQ7qU0HfZgL5XFf.jpg",
            "original_language": "en",
            "original_title": "Batman: Gotham Knight",
            "genre_ids": [
                16,
                28,
                12
            ],
            "backdrop_path": "/cAW1NAahXhBUFJZgicBIGPs2OkZ.jpg",
            "adult": false,
            "overview": "Explore Bruce Wayne's transition from his beginning as a tormented vigilantee to The Dark Knight of a crumbling metropolis with six distinct chapters but intended to be viewed as a whole.",
            "release_date": "2008-07-03"
        },
        {
            "vote_count": 10,
            "id": 125249,
            "video": false,
            "vote_average": 6.7,
            "title": "The Bat Man",
            "popularity": 1.12258,
            "poster_path": "/7wnRn8iQ0QInEK1CaZFqw1zPhht.jpg",
            "original_language": "en",
            "original_title": "The Bat Man",
            "genre_ids": [
                28
            ],
            "backdrop_path": "/xEG5iP1qZCiDt4BefSpLy1d54zE.jpg",
            "adult": false,
            "overview": "Japanese master spy Daka operates a covert espionage-sabotage organization located in Metropolis' now-deserted Little Tokyo, which turns American scientists into pliable zombies.",
            "release_date": "1943-07-16"
        },
        {
            "vote_count": 135,
            "id": 22855,
            "video": false,
            "vote_average": 6.6,
            "title": "Superman/Batman: Public Enemies",
            "popularity": 2.271075,
            "poster_path": "/7eaHkUKAzfstt6XQCiXyuKiZUAw.jpg",
            "original_language": "en",
            "original_title": "Superman/Batman: Public Enemies",
            "genre_ids": [
                16,
                28,
                12
            ],
            "backdrop_path": "/aMyEMGuW2NV3A0whuEM7VKp6M73.jpg",
            "adult": false,
            "overview": "United States President Lex Luthor uses the oncoming trajectory of a Kryptonite meteor to frame Superman and declare a $1 billion bounty on the heads of the Man of Steel and his ‘partner in crime’, Batman. Heroes and villains alike launch a relentless pursuit of Superman and Batman, who must unite—and recruit help—to try and stave off the action-packed onslaught, stop the meteor Luthors plot.",
            "release_date": "2009-09-29"
        },
        {
            "vote_count": 159,
            "id": 366924,
            "video": false,
            "vote_average": 6.8,
            "title": "Batman: Bad Blood",
            "popularity": 2.238091,
            "poster_path": "/xp65MaH8bycr5v14f8jPO2NEXlX.jpg",
            "original_language": "en",
            "original_title": "Batman: Bad Blood",
            "genre_ids": [
                28,
                16,
                878
            ],
            "backdrop_path": "/1jpJpe5sx0AzSLOMFfds0s5alSw.jpg",
            "adult": false,
            "overview": "Bruce Wayne is missing. Alfred covers for him while Nightwing and Robin patrol Gotham City in his stead. And a new player, Batwoman, investigates Batman's disappearance.",
            "release_date": "2016-03-22"
        },
        {
            "vote_count": 376,
            "id": 142061,
            "video": false,
            "vote_average": 7.9,
            "title": "Batman: The Dark Knight Returns, Part 2",
            "popularity": 4.056967,
            "poster_path": "/wPeorCnD9MRR2S9Dzh4OpIgNLiv.jpg",
            "original_language": "en",
            "original_title": "Batman: The Dark Knight Returns, Part 2",
            "genre_ids": [
                28,
                16
            ],
            "backdrop_path": "/ew0ouZ1MSxbNugPMgbOhuTrd3aA.jpg",
            "adult": false,
            "overview": "Batman has stopped the reign of terror that The Mutants had cast upon his city.  Now an old foe wants a reunion and the government wants The Man of Steel to put a stop to Batman.",
            "release_date": "2013-01-18"
        },
        {
            "vote_count": 50,
            "id": 327418,
            "video": false,
            "vote_average": 5.5,
            "title": "Batman Unlimited: Animal Instincts",
            "popularity": 2.073715,
            "poster_path": "/1N7KJtdGqiwGbHTWgqt5dleP3rP.jpg",
            "original_language": "en",
            "original_title": "Batman Unlimited: Animal Instincts",
            "genre_ids": [
                28,
                16,
                10751
            ],
            "backdrop_path": "/sJWdgdZanUZV2VpYAgDV5CSqVvE.jpg",
            "adult": false,
            "overview": "Gotham City is under siege by a series of bizarre crimes and only the world's greatest detective, Batman, can unravel the mystery! The trail leads to none other than the Penguin and his Animilitia, an animal-inspired squad of villains including Silverback, Cheetah, Killer Croc and the monstrous Man-Bat.",
            "release_date": "2015-05-12"
        },
        {
            "vote_count": 144,
            "id": 45162,
            "video": false,
            "vote_average": 6.9,
            "title": "Superman/Batman: Apocalypse",
            "popularity": 1.942481,
            "poster_path": "/wNtrbql45NqvomsYKr3uHXgFj2D.jpg",
            "original_language": "en",
            "original_title": "Superman/Batman: Apocalypse",
            "genre_ids": [
                28,
                12,
                16
            ],
            "backdrop_path": "/bMNEElThWSUgzFUOn5SYU4eHYXG.jpg",
            "adult": false,
            "overview": "Batman discovers a mysterious teen-aged girl with superhuman powers and a connection to Superman. When the girl comes to the attention of Darkseid, the evil overlord of Apokolips, events take a decidedly dangerous turn.",
            "release_date": "2010-09-28"
        },
        {
            "vote_count": 5,
            "id": 204649,
            "video": false,
            "vote_average": 7.2,
            "title": "Batman: Beyond Batman",
            "popularity": 1.020166,
            "poster_path": "/zMY2QVCN9z6YH0eS32NOrSss0gb.jpg",
            "original_language": "en",
            "original_title": "Batman: Beyond Batman",
            "genre_ids": [],
            "backdrop_path": null,
            "adult": false,
            "overview": "Behind the scenes documentary highlighting production design, props &amp; gadgets, batmobile/batsuit design, and the music of the 1989 Batman.",
            "release_date": "2005-07-04"
        },
        {
            "vote_count": 2,
            "id": 414906,
            "video": false,
            "vote_average": 0,
            "title": "The Batman",
            "popularity": 1.258662,
            "poster_path": "/33aAHK9VhJCflARulLrSaBKW5Xo.jpg",
            "original_language": "en",
            "original_title": "The Batman",
            "genre_ids": [
                28,
                12,
                18
            ],
            "backdrop_path": "/4Cp1zoZuXDXxIwzHbGnBJqrDvee.jpg",
            "adult": false,
            "overview": "Batman makes his first stand-alone appearance in the DC Extended Universe.",
            "release_date": "2019-12-31"
        },
        {
            "vote_count": 396,
            "id": 40662,
            "video": false,
            "vote_average": 7.5,
            "title": "Batman: Under the Red Hood",
            "popularity": 2.511356,
            "poster_path": "/78kjgspmLLOm2Glgpzqo9cS4GpI.jpg",
            "original_language": "en",
            "original_title": "Batman: Under the Red Hood",
            "genre_ids": [
                28,
                16
            ],
            "backdrop_path": "/fJDOk1XtYxxX6OUEHohDPuKejXF.jpg",
            "adult": false,
            "overview": "Batman faces his ultimate challenge as the mysterious Red Hood takes Gotham City by firestorm. One part vigilante, one part criminal kingpin, Red Hood begins cleaning up Gotham with the efficiency of Batman, but without following the same ethical code.",
            "release_date": "2010-07-27"
        },
        {
            "vote_count": 412,
            "id": 382322,
            "video": false,
            "vote_average": 6.1,
            "title": "Batman: The Killing Joke",
            "popularity": 1.882533,
            "poster_path": "/zm0ODjtfJfJW0W269LqsQl5OhJ8.jpg",
            "original_language": "en",
            "original_title": "Batman: The Killing Joke",
            "genre_ids": [
                28,
                16,
                80,
                18
            ],
            "backdrop_path": "/iYrE2zV1DfZ3l7Lh4frHzNwFncq.jpg",
            "adult": false,
            "overview": "As Batman hunts for the escaped Joker, the Clown Prince of Crime attacks the Gordon family to prove a diabolical point mirroring his own fall into madness. Based on the graphic novel by Alan Moore and Brian Bolland.",
            "release_date": "2016-07-21"
        }
    ]
}